{
    "code": 0,
    "data": {
    "content": [
    {
    "cate": 608,
    "cateStr": "动漫",
    "commentCount": 19,
    "commentCountStr": "19",
    "contentCount": 0,
    "contentCountStr": "0",
    "cover": "https://img.zcool.cn/community/013bbb5bbf1718a801213deac063cb.jpg",
    "cover1x": "https://img.zcool.cn/community/013bbb5bbf1718a801213deac063cb.jpg@260w_195h_1c_1e_1o_100sh.jpg",
    "cover2x": "https://img.zcool.cn/community/013bbb5bbf1718a801213deac063cb.jpg@520w_390h_1c_1e_1o_100sh.jpg",
    "createTime": 1539248293000,
    "creator": 498510,
    "creatorObj": {
    "avatar": "https://img.zcool.cn/community/04ecde553fbab00000014027bb9eb7.jpg",
    "avatar1x": "https://img.zcool.cn/community/04ecde553fbab00000014027bb9eb7.jpg@80w_80h_1c_1e_1o_100sh.jpg",
    "avatar2x": "https://img.zcool.cn/community/04ecde553fbab00000014027bb9eb7.jpg@160w_160h_1c_1e_1o_100sh.jpg",
    "id": 498510,
    "memberType": 0,
    "pageUrl": "https://www.zcool.com.cn/u/498510",
    "status": 1,
    "username": "ASK_animation"
    },
    "designTime": 1539248444000,
    "eventId": 0,
    "favoriteCount": 0,
    "favoriteCountStr": "0",
    "favoriteStatus": 0,
    "id": 7665314,
    "objectType": 3,
    "objectTypeStr": "作品",
    "pageUrl": "https://www.zcool.com.cn/work/ZMzA2NjEyNTY=.html",
    "publishTime": 1539249221000,
    "publishTimeDiffStr": "2天前",
    "recommend": 3,
    "recommendCount": 154,
    "recommendCountStr": "154",
    "recommendTime": 1539249951000,
    "status": 1,
    "subCate": 629,
    "subCateStr": "中/长篇漫画",
    "timeTitleStr": "审核通过时间：2018-10-11 17:13:41；创建时间：2018-10-11 16:58:13",
    "title": "最后的召唤师23-9",
    "trackCode": "",
    "type": 1,
    "typeStr": "原创",
    "viewCount": 8235,
    "viewCountStr": "8235"
    },
    {
    "cate": 33,
    "cateStr": "摄影",
    "commentCount": 103,
    "commentCountStr": "103",
    "contentCount": 0,
    "contentCountStr": "0",
    "cover": "https://img.zcool.cn/community/013d785bbece13a8012099c8b12c05.jpg",
    "cover1x": "https://img.zcool.cn/community/013d785bbece13a8012099c8b12c05.jpg@260w_195h_1c_1e_1o_100sh.jpg",
    "cover2x": "https://img.zcool.cn/community/013d785bbece13a8012099c8b12c05.jpg@520w_390h_1c_1e_1o_100sh.jpg",
    "createTime": 1539160231000,
    "creator": 18010328,
    "creatorObj": {
    "avatar": "https://img.zcool.cn/community/016c5d5bb8e85ba8012099c8986485.jpg",
    "avatar1x": "https://img.zcool.cn/community/016c5d5bb8e85ba8012099c8986485.jpg@80w_80h_1c_1e_1o_100sh.jpg",
    "avatar2x": "https://img.zcool.cn/community/016c5d5bb8e85ba8012099c8986485.jpg@160w_160h_1c_1e_1o_100sh.jpg",
    "id": 18010328,
    "memberType": 0,
    "pageUrl": "https://mansionview.zcool.com.cn",
    "status": 1,
    "username": "mansionview"
    },
    "designTime": 1539216000000,
    "eventId": 0,
    "favoriteCount": 0,
    "favoriteCountStr": "0",
    "favoriteStatus": 0,
    "id": 7659122,
    "objectType": 3,
    "objectTypeStr": "作品",
    "pageUrl": "https://www.zcool.com.cn/work/ZMzA2MzY0ODg=.html",
    "publishTime": 1539235513000,
    "publishTimeDiffStr": "2天前",
    "recommend": 3,
    "recommendCount": 1079,
    "recommendCountStr": "1079",
    "recommendTime": 1539243592000,
    "status": 1,
    "subCate": 41,
    "subCateStr": "静物",
    "timeTitleStr": "审核通过时间：2018-10-11 13:25:13；创建时间：2018-10-10 16:30:31",
    "title": "云想衣裳花想容 | 鲜花与燕窝 | Mansion View Studio",
    "trackCode": "",
    "type": 1,
    "typeStr": "原创",
    "viewCount": 25288,
    "viewCountStr": "2.5万"
    },
    {
    "cate": 1,
    "cateStr": "插画",
    "commentCount": 53,
    "commentCountStr": "53",
    "contentCount": 0,
    "contentCountStr": "0",
    "cover": "https://img.zcool.cn/community/01a01a5bbec5c3a801213dea60d4b8.jpg",
    "cover1x": "https://img.zcool.cn/community/01a01a5bbec5c3a801213dea60d4b8.jpg@260w_195h_1c_1e_1o_100sh.jpg",
    "cover2x": "https://img.zcool.cn/community/01a01a5bbec5c3a801213dea60d4b8.jpg@520w_390h_1c_1e_1o_100sh.jpg",
    "createTime": 1539228688000,
    "creator": 436196,
    "creatorObj": {
    "avatar": "https://img.zcool.cn/community/040710553fadd600000140276c7421.jpg",
    "avatar1x": "https://img.zcool.cn/community/040710553fadd600000140276c7421.jpg@80w_80h_1c_1e_1o_100sh.jpg",
    "avatar2x": "https://img.zcool.cn/community/040710553fadd600000140276c7421.jpg@160w_160h_1c_1e_1o_100sh.jpg",
    "id": 436196,
    "memberType": 0,
    "pageUrl": "https://fangkuaiashou.zcool.com.cn",
    "status": 1,
    "username": "方块阿兽"
    },
    "designTime": 1539216000000,
    "eventId": 0,
    "favoriteCount": 0,
    "favoriteCountStr": "0",
    "favoriteStatus": 0,
    "id": 7662790,
    "objectType": 3,
    "objectTypeStr": "作品",
    "pageUrl": "https://www.zcool.com.cn/work/ZMzA2NTExNjA=.html",
    "publishTime": 1539233891000,
    "publishTimeDiffStr": "2天前",
    "recommend": 3,
    "recommendCount": 1180,
    "recommendCountStr": "1180",
    "recommendTime": 1539243482000,
    "status": 1,
    "subCate": 2,
    "subCateStr": "商业插画",
    "timeTitleStr": "审核通过时间：2018-10-11 12:58:11；创建时间：2018-10-11 11:31:28",
    "title": "#西瓜视频# 珍珠，精彩鲜活皆因你",
    "trackCode": "",
    "type": 1,
    "typeStr": "原创",
    "viewCount": 19504,
    "viewCountStr": "2.0万"
    },
    {
    "cate": 607,
    "cateStr": "网页",
    "commentCount": 140,
    "commentCountStr": "140",
    "contentCount": 0,
    "contentCountStr": "0",
    "cover": "https://img.zcool.cn/community/0184c35bbec03ea801213dea1db875.jpg",
    "cover1x": "https://img.zcool.cn/community/0184c35bbec03ea801213dea1db875.jpg@260w_195h_1c_1e_1o_100sh.jpg",
    "cover2x": "https://img.zcool.cn/community/0184c35bbec03ea801213dea1db875.jpg@520w_390h_1c_1e_1o_100sh.jpg",
    "createTime": 1539227712000,
    "creator": 2720481,
    "creatorObj": {
    "avatar": "https://img.zcool.cn/community/0075495953032aa8012193a3359707.jpg",
    "avatar1x": "https://img.zcool.cn/community/0075495953032aa8012193a3359707.jpg@80w_80h_1c_1e_1o_100sh.jpg",
    "avatar2x": "https://img.zcool.cn/community/0075495953032aa8012193a3359707.jpg@160w_160h_1c_1e_1o_100sh.jpg",
    "id": 2720481,
    "memberType": 0,
    "pageUrl": "https://iveleung.zcool.com.cn",
    "status": 1,
    "username": "梁定然_海南"
    },
    "designTime": 1539216000000,
    "eventId": 0,
    "favoriteCount": 0,
    "favoriteCountStr": "0",
    "favoriteStatus": 0,
    "id": 7662646,
    "objectType": 3,
    "objectTypeStr": "作品",
    "pageUrl": "https://www.zcool.com.cn/work/ZMzA2NTA1ODQ=.html",
    "publishTime": 1539235819000,
    "publishTimeDiffStr": "2天前",
    "recommend": 3,
    "recommendCount": 939,
    "recommendCountStr": "939",
    "recommendTime": 1539236018000,
    "status": 1,
    "subCate": 616,
    "subCateStr": "电商",
    "timeTitleStr": "审核通过时间：2018-10-11 13:30:19；创建时间：2018-10-11 11:15:12",
    "title": "来一波详情页合集",
    "trackCode": "",
    "type": 1,
    "typeStr": "原创",
    "viewCount": 22060,
    "viewCountStr": "2.2万"
    },
    {
    "cate": 33,
    "cateStr": "摄影",
    "commentCount": 93,
    "commentCountStr": "93",
    "contentCount": 0,
    "contentCountStr": "0",
    "cover": "https://img.zcool.cn/community/01ae545bbe8d3aa801213deaedae88.jpg",
    "cover1x": "https://img.zcool.cn/community/01ae545bbe8d3aa801213deaedae88.jpg@260w_195h_1c_1e_1o_100sh.jpg",
    "cover2x": "https://img.zcool.cn/community/01ae545bbe8d3aa801213deaedae88.jpg@520w_390h_1c_1e_1o_100sh.jpg",
    "createTime": 1539213563000,
    "creator": 1272173,
    "creatorObj": {
    "avatar": "https://img.zcool.cn/community/0462775664dd5e000001e053812deb.jpg",
    "avatar1x": "https://img.zcool.cn/community/0462775664dd5e000001e053812deb.jpg@80w_80h_1c_1e_1o_100sh.jpg",
    "avatar2x": "https://img.zcool.cn/community/0462775664dd5e000001e053812deb.jpg@160w_160h_1c_1e_1o_100sh.jpg",
    "id": 1272173,
    "memberType": 0,
    "pageUrl": "https://www.zcool.com.cn/u/1272173",
    "status": 1,
    "username": "西瓜ADA"
    },
    "designTime": 1539214670000,
    "eventId": 0,
    "favoriteCount": 0,
    "favoriteCountStr": "0",
    "favoriteStatus": 0,
    "id": 7661478,
    "objectType": 3,
    "objectTypeStr": "作品",
    "pageUrl": "https://www.zcool.com.cn/work/ZMzA2NDU5MTI=.html",
    "publishTime": 1539217704000,
    "publishTimeDiffStr": "2天前",
    "recommend": 3,
    "recommendCount": 729,
    "recommendCountStr": "729",
    "recommendTime": 1539230125000,
    "status": 1,
    "subCate": 41,
    "subCateStr": "静物",
    "timeTitleStr": "审核通过时间：2018-10-11 08:28:24；创建时间：2018-10-11 07:19:23",
    "title": "微凉",
    "trackCode": "",
    "type": 1,
    "typeStr": "原创",
    "viewCount": 44069,
    "viewCountStr": "4.4万"
    },
    {
    "cate": 607,
    "cateStr": "网页",
    "commentCount": 91,
    "commentCountStr": "91",
    "contentCount": 0,
    "contentCountStr": "0",
    "cover": "https://img.zcool.cn/community/0155a05bc091f1a8012099c82058c7.jpg",
    "cover1x": "https://img.zcool.cn/community/0155a05bc091f1a8012099c82058c7.jpg@260w_195h_1c_1e_1o_100sh.jpg",
    "cover2x": "https://img.zcool.cn/community/0155a05bc091f1a8012099c82058c7.jpg@520w_390h_1c_1e_1o_100sh.jpg",
    "createTime": 1539219593000,
    "creator": 2897833,
    "creatorObj": {
    "avatar": "https://img.zcool.cn/community/0121895bb63856a801213dea11b2ea.jpg",
    "avatar1x": "https://img.zcool.cn/community/0121895bb63856a801213dea11b2ea.jpg@80w_80h_1c_1e_1o_100sh.jpg",
    "avatar2x": "https://img.zcool.cn/community/0121895bb63856a801213dea11b2ea.jpg@160w_160h_1c_1e_1o_100sh.jpg",
    "id": 2897833,
    "memberType": 0,
    "pageUrl": "https://rotos.zcool.com.cn",
    "status": 1,
    "username": "rOtOs"
    },
    "designTime": 1539216000000,
    "eventId": 0,
    "favoriteCount": 0,
    "favoriteCountStr": "0",
    "favoriteStatus": 0,
    "id": 7661609,
    "objectType": 3,
    "objectTypeStr": "作品",
    "pageUrl": "https://www.zcool.com.cn/work/ZMzA2NDY0MzY=.html",
    "publishTime": 1539221013000,
    "publishTimeDiffStr": "2天前",
    "recommend": 3,
    "recommendCount": 555,
    "recommendCountStr": "555",
    "recommendTime": 1539228511000,
    "status": 1,
    "subCate": 693,
    "subCateStr": "游戏/娱乐",
    "timeTitleStr": "审核通过时间：2018-10-11 09:23:33；创建时间：2018-10-11 08:59:53",
    "title": "【起源】Origins",
    "trackCode": "",
    "type": 1,
    "typeStr": "原创",
    "viewCount": 12190,
    "viewCountStr": "1.2万"
    },
    {
    "cate": 8,
    "cateStr": "平面",
    "commentCount": 33,
    "commentCountStr": "33",
    "contentCount": 0,
    "contentCountStr": "0",
    "cover": "https://img.zcool.cn/community/0198665bbe0d34a8012099c81da4d6.jpg",
    "cover1x": "https://img.zcool.cn/community/0198665bbe0d34a8012099c81da4d6.jpg@260w_195h_1c_1e_1o_100sh.jpg",
    "cover2x": "https://img.zcool.cn/community/0198665bbe0d34a8012099c81da4d6.jpg@520w_390h_1c_1e_1o_100sh.jpg",
    "createTime": 1539181273000,
    "creator": 14416072,
    "creatorObj": {
    "avatar": "https://img.zcool.cn/community/0052775a812cc7a80121923120a3c5.jpg",
    "avatar1x": "https://img.zcool.cn/community/0052775a812cc7a80121923120a3c5.jpg@80w_80h_1c_1e_1o_100sh.jpg",
    "avatar2x": "https://img.zcool.cn/community/0052775a812cc7a80121923120a3c5.jpg@160w_160h_1c_1e_1o_100sh.jpg",
    "id": 14416072,
    "memberType": 0,
    "pageUrl": "https://tangyin.zcool.com.cn",
    "status": 1,
    "username": "唐丨寅"
    },
    "designTime": 1539182338000,
    "eventId": 0,
    "favoriteCount": 0,
    "favoriteCountStr": "0",
    "favoriteStatus": 0,
    "id": 7660912,
    "objectType": 3,
    "objectTypeStr": "作品",
    "pageUrl": "https://www.zcool.com.cn/work/ZMzA2NDM2NDg=.html",
    "publishTime": 1539185635000,
    "publishTimeDiffStr": "3天前",
    "recommend": 3,
    "recommendCount": 280,
    "recommendCountStr": "280",
    "recommendTime": 1539228382000,
    "status": 1,
    "subCate": 13,
    "subCateStr": "标志",
    "timeTitleStr": "审核通过时间：2018-10-10 23:33:55；创建时间：2018-10-10 22:21:13",
    "title": "LOGO 合集 07",
    "trackCode": "",
    "type": 1,
    "typeStr": "原创",
    "viewCount": 23349,
    "viewCountStr": "2.3万"
    },
    {
    "cate": 608,
    "cateStr": "动漫",
    "commentCount": 12,
    "commentCountStr": "12",
    "contentCount": 0,
    "contentCountStr": "0",
    "cover": "https://img.zcool.cn/community/01ee1e5bbea5c6a801213deadaa811.jpg",
    "cover1x": "https://img.zcool.cn/community/01ee1e5bbea5c6a801213deadaa811.jpg@260w_195h_1c_1e_1o_100sh.jpg",
    "cover2x": "https://img.zcool.cn/community/01ee1e5bbea5c6a801213deadaa811.jpg@520w_390h_1c_1e_1o_100sh.jpg",
    "createTime": 1539220689000,
    "creator": 12933525,
    "creatorObj": {
    "avatar": "https://img.zcool.cn/community/04485b58be0a72a801219c779239e1.jpg",
    "avatar1x": "https://img.zcool.cn/community/04485b58be0a72a801219c779239e1.jpg@80w_80h_1c_1e_1o_100sh.jpg",
    "avatar2x": "https://img.zcool.cn/community/04485b58be0a72a801219c779239e1.jpg@160w_160h_1c_1e_1o_100sh.jpg",
    "id": 12933525,
    "memberType": 0,
    "pageUrl": "https://inakis.zcool.com.cn",
    "status": 1,
    "username": "否来"
    },
    "designTime": 1539216000000,
    "eventId": 0,
    "favoriteCount": 0,
    "favoriteCountStr": "0",
    "favoriteStatus": 0,
    "id": 7661705,
    "objectType": 3,
    "objectTypeStr": "作品",
    "pageUrl": "https://www.zcool.com.cn/work/ZMzA2NDY4MjA=.html",
    "publishTime": 1539222469000,
    "publishTimeDiffStr": "2天前",
    "recommend": 3,
    "recommendCount": 63,
    "recommendCountStr": "63",
    "recommendTime": 1539228095000,
    "status": 1,
    "subCate": 629,
    "subCateStr": "中/长篇漫画",
    "timeTitleStr": "审核通过时间：2018-10-11 09:47:49；创建时间：2018-10-11 09:18:09",
    "title": "次元大学#19：“她们”的数量",
    "trackCode": "",
    "type": 1,
    "typeStr": "原创",
    "viewCount": 4522,
    "viewCountStr": "4522"
    },
    {
    "cate": 607,
    "cateStr": "网页",
    "commentCount": 21,
    "commentCountStr": "21",
    "contentCount": 0,
    "contentCountStr": "0",
    "cover": "https://img.zcool.cn/community/010e445bbec33ba8012099c86079e6.jpg",
    "cover1x": "https://img.zcool.cn/community/010e445bbec33ba8012099c86079e6.jpg@260w_195h_1c_1e_1o_100sh.jpg",
    "cover2x": "https://img.zcool.cn/community/010e445bbec33ba8012099c86079e6.jpg@520w_390h_1c_1e_1o_100sh.jpg",
    "createTime": 1539221875000,
    "creator": 2103590,
    "creatorObj": {
    "avatar": "https://img.zcool.cn/community/0055c35ac985c5a8012062e36578cb.jpg",
    "avatar1x": "https://img.zcool.cn/community/0055c35ac985c5a8012062e36578cb.jpg@80w_80h_1c_1e_1o_100sh.jpg",
    "avatar2x": "https://img.zcool.cn/community/0055c35ac985c5a8012062e36578cb.jpg@160w_160h_1c_1e_1o_100sh.jpg",
    "id": 2103590,
    "memberType": 1,
    "pageUrl": "https://whaledream.zcool.com.cn",
    "status": 1,
    "username": "鲸梦文化"
    },
    "designTime": 1539222252000,
    "eventId": 0,
    "favoriteCount": 0,
    "favoriteCountStr": "0",
    "favoriteStatus": 0,
    "id": 7661815,
    "objectType": 3,
    "objectTypeStr": "作品",
    "pageUrl": "https://www.zcool.com.cn/work/ZMzA2NDcyNjA=.html",
    "publishTime": 1539223357000,
    "publishTimeDiffStr": "2天前",
    "recommend": 3,
    "recommendCount": 361,
    "recommendCountStr": "361",
    "recommendTime": 1539226280000,
    "status": 1,
    "subCate": 777,
    "subCateStr": "移动端网页",
    "timeTitleStr": "审核通过时间：2018-10-11 10:02:37；创建时间：2018-10-11 09:37:55",
    "title": "每日优鲜：天机妙算的塔罗牌游戏",
    "trackCode": "",
    "type": 1,
    "typeStr": "原创",
    "viewCount": 7494,
    "viewCountStr": "7494"
    },
    {
    "cate": 707,
    "cateStr": "观点",
    "commentCount": 83,
    "commentCountStr": "83",
    "contentCount": 0,
    "contentCountStr": "0",
    "cover": "https://img.zcool.cn/community/016d8c5bbe28ada801213dead17811.jpg",
    "cover1x": "https://img.zcool.cn/community/016d8c5bbe28ada801213dead17811.jpg@260w_195h_1c_1e_1o_100sh.jpg",
    "cover2x": "https://img.zcool.cn/community/016d8c5bbe28ada801213dead17811.jpg@520w_390h_1c_1e_1o_100sh.jpg",
    "createTime": 1539188255000,
    "creator": 1355304,
    "creatorObj": {
    "avatar": "https://img.zcool.cn/community/006cff5a7a9f5ba8012045b365dfdd.jpg",
    "avatar1x": "https://img.zcool.cn/community/006cff5a7a9f5ba8012045b365dfdd.jpg@80w_80h_1c_1e_1o_100sh.jpg",
    "avatar2x": "https://img.zcool.cn/community/006cff5a7a9f5ba8012045b365dfdd.jpg@160w_160h_1c_1e_1o_100sh.jpg",
    "id": 1355304,
    "memberType": 1,
    "pageUrl": "https://xinming.zcool.com.cn",
    "status": 1,
    "username": "心铭舍品牌设计"
    },
    "eventId": 0,
    "favoriteCount": 0,
    "favoriteCountStr": "0",
    "favoriteStatus": 0,
    "id": 198006,
    "objectType": 8,
    "objectTypeStr": "文章",
    "pageUrl": "https://www.zcool.com.cn/article/ZNzkyMDI0.html",
    "publishTime": 1539219129000,
    "publishTimeDiffStr": "2天前",
    "recommend": 3,
    "recommendCount": 781,
    "recommendCountStr": "781",
    "recommendTime": 1539224252000,
    "status": 1,
    "subCate": 0,
    "subCateStr": "多领域",
    "timeTitleStr": "审核通过时间：2018-10-11 08:52:09；创建时间：2018-10-11 00:17:35",
    "title": "如何唤醒自身创造力",
    "trackCode": "",
    "type": 1,
    "typeStr": "原创",
    "viewCount": 19759,
    "viewCountStr": "2.0万"
    }
    ],
    "first": false,
    "last": false,
    "loadNumber": 1,
    "number": 2,
    "numberOfElements": 10,
    "pageable": {
    "limit": 10,
    "loadIndex": 1,
    "loadNumber": 1,
    "loadSize": 10,
    "offset": 10,
    "pageIndex": 2,
    "pageNumber": 2,
    "pageSize": 10
    },
    "size": 10,
    "total": 2829,
    "totalContent": 0,
    "totalElements": 2829,
    "totalPages": 283
    },
    "msg": "success"
    }
